{
  "project_info": {
    "project_number": "506355152439",
    "project_id": "mahra-app",
    "storage_bucket": "mahra-app.appspot.com"
  },
  "client": [
    {
      "client_info": {
        "mobilesdk_app_id": "1:506355152439:android:2f09616f78149893bbb1b2",
        "android_client_info": {
          "package_name": "ua.mahra.application.com"
        }
      },
      "oauth_client": [
        {
          "client_id": "506355152439-ultkaa7il3dijms23ahqnefrbr95m1qr.apps.googleusercontent.com",
          "client_type": 3
        }
      ],
      "api_key": [
        {
          "current_key": "AIzaSyBXGeYQuI3Bkk5Pc6T_CovERydA3aw1rIw"
        }
      ],
      "services": {
        "appinvite_service": {
          "other_platform_oauth_client": [
            {
              "client_id": "506355152439-ultkaa7il3dijms23ahqnefrbr95m1qr.apps.googleusercontent.com",
              "client_type": 3
            }
          ]
        }
      }
    }
  ],
  "configuration_version": "1"
}